Clean age categories — cdc_edades_peru • cdcper
…
#> The following objects are masked from 'package:purrr':
#> 
#>     %@%, as_function, flatten, flatten_chr, flatten_dbl, flatten_int,
#>     flatten_lgl, flatten_raw, invoke, list_along, modify, prepend,
#>     splice
data_edad <- tibble(age=charlatan::ch_integer(n = 100,min = 2,max = 100))
data_edad %>% skimr::skim_to_wide() %>% select(-hist)
#> # A tibble: 1 x 12
#>   type  variable missing complete n     mean  sd    p0    p25   p50   p75  
#>   <chr> <chr>    <chr>   <chr>    <chr> <chr> <chr> <chr> <chr> <chr> <chr>
#> 1 nume~ age      0       100      100   46.87 27.54 2     24.75 44.5  69.25
#> # ... with 1 more variable: p100 <chr>
data_edad %>%
  cdc_edades_peru(variable_edad = age)
#> # A tibble: 100 x 6
#>      age  edad edad_etapas_de_vi~ edad_etapas_de_v~ edad_grupo_x edad_quinquenal
#>    <dbl> <dbl> <fct>              <fct>             <chr>        <ord>          
#>  1    46    46 30_59a             adulto            45 a 54 años 45 a 49 años   
#>  2    24    24 18_29a             joven             15 a 24 años 20 a 24 años   
#>  3    77    77 60a_mas            adulto_mayor      75 años a m~ 75 a 79 años   
#>  4    64    64 60a_mas            adulto_mayor      55 a 64 años 60 a 64 años   
#>  5    48    48 30_59a             adulto            45 a 54 años 45 a 49 años   
#>  6    32    32 30_59a             adulto            25 a 34 años 30 a 34 años   
#>  7    69    69 60a_mas            adulto_mayor      65 a 74 años 65 a 69 años   
#>  8    74    74 60a_mas            adulto_mayor      65 a 74 años 70 a 74 años   
#>  9    70    70 60a_mas            adulto_mayor      65 a 74 años 70 a 74 años   
#> 10     6     6 0_11a              ninho             0 a 14 años  5 a 9 años     
#> # ... with 90 more rows
…
