Crear bases y tablas de conteo y tasas estandarizadas de mortalidad — cdc_mortality • cdcper
…
library(cdcper)
library(tidyverse)
library(magrittr)
library(readxl)
library(haven)
library(naniar)
library(ggrepel)
library(labelled)
library(gridExtra)

# importar base ----------------------------------------------------------------

data(mortdb)
mortdb
#> # A tibble: 2,258 x 30
#>    cod_sub_cate sexo  avpp_n descripcion edad_a edadasis edadesco edadmef
#>    <chr>        <fct>  <dbl> <chr>        <dbl> <fct>    <fct>    <fct>  
#>  1 K746         Mujer   3.23 OTRAS CIRR~ 71     Adulto ~ No esco~ No per~
#>  2 J189         Mujer   0    NEUMONIA, ~ 95     Adulto ~ No esco~ No per~
#>  3 J189         Homb~  74.1  NEUMONIA, ~  0.167 Infancia No esco~ No per~
#>  4 J189         Homb~  28.2  NEUMONIA, ~ 46     Adulto   No esco~ No per~
#>  5 J841         Homb~  13.2  OTRAS ENFE~ 61     Adulto ~ No esco~ No per~
#>  6 E146         Homb~  18.2  DIABETES M~ 56     Adulto   No esco~ No per~
#>  7 J189         Mujer  32.2  NEUMONIA, ~ 42     Adulto   No esco~ Period~
#>  8 J470         Mujer   0    BRONQUIECT~ 80     Adulto ~ No esco~ No per~
#>  9 I219         Homb~  14.2  INFARTO AG~ 60     Adulto ~ No esco~ No per~
#> 10 C910         Mujer   2.23 LEUCEMIA L~ 72     Adulto ~ No esco~ No per~
#> # ... with 2,248 more rows, and 22 more variables: edaddgsp <fct>,
#> #   descrip_grupo110 <fct>, descrip_grupo10 <fct>, edad_q <chr>, mesfall <fct>,
#> #   year <chr>, edad_q2 <fct>, cie10 <chr>, quinquenal <fct>, trienal <fct>,
#> #   bienal <fct>, departamento <fct>, provincia <chr>, distrito <chr>,
#> #   qpobreza <fct>, condpobrez <fct>, region_nat <fct>, ambito <fct>,
#> #   ubigeo <chr>, edad_asis2015 <chr>, edad_asis_muna <chr>,
#> #   edad_estandar <fct>
…
#> # A tibble: 6 x 7
#>   country year  sexo   n_sum  pop_sum cdr_cmil dar_cmil
#>   <chr>   <chr> <chr>  <int>    <dbl>    <dbl>    <dbl>
#> 1 PERU    2013  Hombre   385 15271062     2.52     3.27
#> 2 PERU    2013  Mujer    344 15204082     2.26     2.60
#> 3 PERU    2014  Hombre   410 15438887     2.66     3.38
#> 4 PERU    2014  Mujer    368 15375288     2.39     2.69
#> 5 PERU    2015  Hombre   417 15605814     2.67     3.35
#> 6 PERU    2015  Mujer    334 15545829     2.15     2.36
cdc_mortality(data = mortdb,denominador = denomi_pe,estandar = fctwho_std, year,sexo,departamento)
#> Joining, by = c("year", "sexo", "departamento", "edad_estandar")
#> Warning: Column `sexo` joining factor and character vector, coercing into character vector
#> Warning: Column `departamento` joining factor and character vector, coercing into character vector
#> Joining, by = "edad_estandar"
#> # A tibble: 150 x 8
#>    country year  sexo   departamento n_sum pop_sum cdr_cmil dar_cmil
#>    <chr>   <chr> <chr>  <chr>        <int>   <dbl>    <dbl>    <dbl>
#>  1 PERU    2013  Hombre AMAZONAS         7  220810     3.17     4.40
#>  2 PERU    2013  Hombre ANCASH          13  575331     2.26     2.87
#>  3 PERU    2013  Hombre APURIMAC         6  231664     2.59     3.90
#>  4 PERU    2013  Hombre AREQUIPA        22  625246     3.52     4.01
#>  5 PERU    2013  Hombre AYACUCHO         8  343265     2.33     3.50
#>  6 PERU    2013  Hombre CAJAMARCA       22  765045     2.88     4.12
#>  7 PERU    2013  Hombre CALLAO          20  490081     4.08     4.48
#>  8 PERU    2013  Hombre CUSCO           16  659633     2.43     3.04
#>  9 PERU    2013  Hombre HUANCAVELICA     7  244132     2.87     3.23
#> 10 PERU    2013  Hombre HUANUCO         11  430580     2.55     4.02
#> # ... with 140 more rows
cdc_mortality(data = mortdb,denominador = denomi_pe,estandar = fctwho_std, year,departamento)
#> Joining, by = c("year", "departamento", "edad_estandar")
#> Warning: Column `departamento` joining factor and character vector, coercing into character vector
#> Joining, by = "edad_estandar"
#> # A tibble: 75 x 7
#>    country year  departamento n_sum pop_sum cdr_cmil dar_cmil
#>    <chr>   <chr> <chr>        <int>   <dbl>    <dbl>    <dbl>
#>  1 PERU    2013  AMAZONAS        13  419404     3.10     4.66
#>  2 PERU    2013  ANCASH          26 1135962     2.29     2.61
#>  3 PERU    2013  APURIMAC        10  454324     2.20     2.58
#>  4 PERU    2013  AREQUIPA        39 1259162     3.10     3.36
#>  5 PERU    2013  AYACUCHO        20  673609     2.97     4.28
#>  6 PERU    2013  CAJAMARCA       47 1519764     3.09     4.56
#>  7 PERU    2013  CALLAO          31  982800     3.15     3.41
#>  8 PERU    2013  CUSCO           42 1300609     3.23     3.98
#>  9 PERU    2013  HUANCAVELICA    10  487472     2.05     2.50
#> 10 PERU    2013  HUANUCO         16  847714     1.89     2.59
#> # ... with 65 more rows
…
#cuando mort y deno no comparten covariables
deno_ys <- cdc_denominator(denominador = denomi_pe,year,sexo)
cdc_mortality_2(data = mortdb,
                denominador = deno_ys,
                estandar = fctwho_std,
                year,sexo,descrip_grupo10)
#> Joining, by = c("year", "sexo")
#> Warning: Column `sexo` joining factor and character vector, coercing into character vector
#> Joining, by = "edad_estandar"
#> # A tibble: 60 x 8
#>    country year  sexo   descrip_grupo10          n_sum pop_sum cdr_cmil dar_cmil
#>    <chr>   <chr> <chr>  <fct>                    <int>   <dbl>    <dbl>    <dbl>
#>  1 PERU    2013  Hombre Enfermedades Infecciosa~    67  2.60e8  0.0258   0.0168 
#>  2 PERU    2013  Hombre Enfermedades neoplasicas    69  2.60e8  0.0266   0.0151 
#>  3 PERU    2013  Hombre Enfermedades del aparat~    68  2.60e8  0.0262   0.0139 
#>  4 PERU    2013  Hombre Afecciones perinatales      11  2.60e8  0.00424  0.00638
#>  5 PERU    2013  Hombre Lesiones y causas exter~    69  2.60e8  0.0266   0.0289 
#>  6 PERU    2013  Hombre Enfermedades mentales y~     7  2.60e8  0.00270  0.00209
#>  7 PERU    2013  Hombre Enfermedades del sistem~    24  2.60e8  0.00924  0.00481
#>  8 PERU    2013  Hombre Enfermedades del sistem~    33  2.60e8  0.0127   0.00732
#>  9 PERU    2013  Hombre Enfermedades metabolica~    20  2.60e8  0.00770  0.00523
#> 10 PERU    2013  Hombre Demas enfermedades          17  2.60e8  0.00655  0.00462
#> # ... with 50 more rows
#o todo en una
cdc_mortality_2(data = mortdb,
                denominador = cdc_denominator(denominador = denomi_pe,year),
                estandar = fctwho_std,
                year,edad_q)
#> Joining, by = "year"
#> Joining, by = "edad_estandar"
#> # A tibble: 54 x 7
#>    country year  edad_q n_sum   pop_sum cdr_cmil dar_cmil
#>    <chr>   <chr> <chr>  <int>     <dbl>    <dbl>    <dbl>
#>  1 PERU    2013  <1        43 518077448 0.00830   0.0125 
#>  2 PERU    2013  01-04     20 518077448 0.00386   0.00581
#>  3 PERU    2013  05-09      7 518077448 0.00135   0.00200
#>  4 PERU    2013  10-14      9 518077448 0.00174   0.00254
#>  5 PERU    2013  15-19      5 518077448 0.000965  0.00139
#>  6 PERU    2013  20-24     16 518077448 0.00309   0.00431
#>  7 PERU    2013  25-29     11 518077448 0.00212   0.00286
#>  8 PERU    2013  30-34     19 518077448 0.00367   0.00474
#>  9 PERU    2013  35-39     21 518077448 0.00405   0.00493
#> 10 PERU    2013  40-44     22 518077448 0.00425   0.00476
#> # ... with 44 more rows
cdc_mortality_2(data = mortdb %>% filter(edad_estandar=="0-4"),
                denominador = cdc_denominator(denominador = denomi_pe,year),
                estandar = fctwho_std,
                year,edad_estandar)
#> Joining, by = "year"
#> Joining, by = "edad_estandar"
#> # A tibble: 51 x 7
#>    country year  edad_estandar n_sum  pop_sum cdr_cmil dar_cmil
#>    <chr>   <chr> <fct>         <int>    <dbl>    <dbl>    <dbl>
#>  1 PERU    2013  0-4              63 30475144    0.207   0.0183
#>  2 PERU    2013  5-9               0 30475144    0       0     
#>  3 PERU    2013  10-14             0 30475144    0       0     
#>  4 PERU    2013  15-19             0 30475144    0       0     
#>  5 PERU    2013  20-24             0 30475144    0       0     
#>  6 PERU    2013  25-29             0 30475144    0       0     
#>  7 PERU    2013  30-34             0 30475144    0       0     
#>  8 PERU    2013  35-39             0 30475144    0       0     
#>  9 PERU    2013  40-44             0 30475144    0       0     
#> 10 PERU    2013  45-49             0 30475144    0       0     
#> # ... with 41 more rows
…
# opcionalmente, se puede exportar en RDS y DTA
# cdc_mortality(data = mortdb,denominador = denomi_pe,estandar = fctwho_std,year,sexo,
#               rute_name = "data/mortalidad_anual_nacional_sexo")

# formato wide para exportar tabla resumen en CSV y XLSX
mortdb %>%
  cdc_mortality(denominador = denomi_pe,estandar = fctwho_std,year,sexo,departamento) %>%
  cdc_mortality_to_wide()
#> Joining, by = c("year", "sexo", "departamento", "edad_estandar")
#> Warning: Column `sexo` joining factor and character vector, coercing into character vector
#> Warning: Column `departamento` joining factor and character vector, coercing into character vector
#> Joining, by = "edad_estandar"
#> # A tibble: 200 x 7
#>    country sexo   departamento key         `2013`    `2014`    `2015`
#>    <chr>   <chr>  <chr>        <fct>        <dbl>     <dbl>     <dbl>
#>  1 PERU    Hombre AMAZONAS     n_sum         7         7         9   
#>  2 PERU    Hombre AMAZONAS     pop_sum  220810    221729    222536   
#>  3 PERU    Hombre AMAZONAS     cdr_cmil      3.17      3.16      4.04
#>  4 PERU    Hombre AMAZONAS     dar_cmil      4.40      3.72      4.67
#>  5 PERU    Hombre ANCASH       n_sum        13        21        16   
#>  6 PERU    Hombre ANCASH       pop_sum  575331    579214    582978   
#>  7 PERU    Hombre ANCASH       cdr_cmil      2.26      3.63      2.74
#>  8 PERU    Hombre ANCASH       dar_cmil      2.87      4.26      3.23
#>  9 PERU    Hombre APURIMAC     n_sum         6         9         4   
#> 10 PERU    Hombre APURIMAC     pop_sum  231664    232984    234224   
#> # ... with 190 more rows
…
