Descarga de información meteorológica — get_data_gri • cdcper
…
# final product
prec
#> # A tibble: 108 x 7
#> # Groups:   Year [9]
#>     Year Month Fecha       Prec Departamento Provincia Distrito
#>    <int> <int> <date>     <dbl> <chr>        <chr>     <chr>   
#>  1  2010     1 2010-01-01 306.  LORETO       MAYNAS    IQUITOS 
#>  2  2010     2 2010-02-01 283.  LORETO       MAYNAS    IQUITOS 
#>  3  2010     3 2010-03-01 463.  LORETO       MAYNAS    IQUITOS 
#>  4  2010     4 2010-04-01 174.  LORETO       MAYNAS    IQUITOS 
#>  5  2010     5 2010-05-01 240.  LORETO       MAYNAS    IQUITOS 
#>  6  2010     6 2010-06-01 192.  LORETO       MAYNAS    IQUITOS 
#>  7  2010     7 2010-07-01 188.  LORETO       MAYNAS    IQUITOS 
#>  8  2010     8 2010-08-01  71.4 LORETO       MAYNAS    IQUITOS 
#>  9  2010     9 2010-09-01 116.  LORETO       MAYNAS    IQUITOS 
#> 10  2010    10 2010-10-01 132.  LORETO       MAYNAS    IQUITOS 
#> # ... with 98 more rows
…
